{
  "files": {
    "main.css": "/static/css/main.fc81da61.chunk.css",
    "main.js": "/static/js/main.2b4d5a61.chunk.js",
    "main.js.map": "/static/js/main.2b4d5a61.chunk.js.map",
    "runtime-main.js": "/static/js/runtime-main.ad55bef3.js",
    "runtime-main.js.map": "/static/js/runtime-main.ad55bef3.js.map",
    "static/js/2.59c99c1a.chunk.js": "/static/js/2.59c99c1a.chunk.js",
    "static/js/2.59c99c1a.chunk.js.map": "/static/js/2.59c99c1a.chunk.js.map",
    "static/js/3.33c07330.chunk.js": "/static/js/3.33c07330.chunk.js",
    "static/js/3.33c07330.chunk.js.map": "/static/js/3.33c07330.chunk.js.map",
    "index.html": "/index.html",
    "static/css/main.fc81da61.chunk.css.map": "/static/css/main.fc81da61.chunk.css.map",
    "static/js/2.59c99c1a.chunk.js.LICENSE.txt": "/static/js/2.59c99c1a.chunk.js.LICENSE.txt",
    "static/media/styles.scss": "/static/media/shape.9fe741b0.svg"
  },
  "entrypoints": [
    "static/js/runtime-main.ad55bef3.js",
    "static/js/2.59c99c1a.chunk.js",
    "static/css/main.fc81da61.chunk.css",
    "static/js/main.2b4d5a61.chunk.js"
  ]
}